﻿Adding Two Numbers
 
Input:Consider n ,m as two inputs
 
Perform addition operation between these two numbers.
 
Output:Print the sum of two numbers
 
Constraint:
The two inputs can be of any length.
 
Example
n=23244563466734
m=21324743566398126712548789826472548112468715487642564812
